EESchema Schematic File Version 4
LIBS:Pi HAT UPS-cache
EELAYER 29 0
EELAYER END
$Descr A4 11693 8268
encoding utf-8
Sheet 3 4
Title "Voltage regulator for rpi uHAT UPS"
Date "2021-06-04"
Rev "0.1"
Comp "Group 5"
Comment1 ""
Comment2 ""
Comment3 ""
Comment4 ""
$EndDescr
$Comp
L power:GND #PWR04
U 1 1 60BA742E
P 7750 4250
F 0 "#PWR04" H 7750 4000 50  0001 C CNN
F 1 "GND" H 7755 4077 50  0000 C CNN
F 2 "" H 7750 4250 50  0001 C CNN
F 3 "" H 7750 4250 50  0001 C CNN
	1    7750 4250
	1    0    0    -1  
$EndComp
$Comp
L Device:R_Small R4
U 1 1 60BA8F35
P 2150 2750
F 0 "R4" H 2209 2796 50  0000 L CNN
F 1 "39" H 2209 2705 50  0000 L CNN
F 2 "Resistor_SMD:R_0201_0603Metric" H 2150 2750 50  0001 C CNN
F 3 "~" H 2150 2750 50  0001 C CNN
	1    2150 2750
	1    0    0    -1  
$EndComp
$Comp
L pspice:DIODE D1
U 1 1 60BAF49F
P 3250 3250
F 0 "D1" H 3250 3515 50  0000 C CNN
F 1 "DIODE" H 3250 3424 50  0000 C CNN
F 2 "Diode_SMD:D_0603_1608Metric" H 3250 3250 50  0001 C CNN
F 3 "~" H 3250 3250 50  0001 C CNN
	1    3250 3250
	1    0    0    -1  
$EndComp
$Comp
L pspice:DIODE D3
U 1 1 60BB022F
P 4650 2850
F 0 "D3" V 4696 2722 50  0000 R CNN
F 1 "DIODE" V 4605 2722 50  0000 R CNN
F 2 "Diode_SMD:Diode_Bridge_Diotec_ABS" H 4650 2850 50  0001 C CNN
F 3 "~" H 4650 2850 50  0001 C CNN
	1    4650 2850
	0    -1   -1   0   
$EndComp
$Comp
L pspice:DIODE D4
U 1 1 60BB0625
P 6050 1750
F 0 "D4" H 6050 1485 50  0000 C CNN
F 1 "DIODE" H 6050 1576 50  0000 C CNN
F 2 "Diode_SMD:Diode_Bridge_Diotec_ABS" H 6050 1750 50  0001 C CNN
F 3 "~" H 6050 1750 50  0001 C CNN
	1    6050 1750
	-1   0    0    1   
$EndComp
$Comp
L pspice:CAP C1
U 1 1 60BB09E8
P 5450 3050
F 0 "C1" H 5628 3096 50  0000 L CNN
F 1 "220u" H 5628 3005 50  0000 L CNN
F 2 "Capacitor_SMD:C_0201_0603Metric" H 5450 3050 50  0001 C CNN
F 3 "~" H 5450 3050 50  0001 C CNN
	1    5450 3050
	1    0    0    -1  
$EndComp
$Comp
L pspice:CAP C2
U 1 1 60BB101A
P 6750 3050
F 0 "C2" H 6928 3096 50  0000 L CNN
F 1 "10u" H 6928 3005 50  0000 L CNN
F 2 "Capacitor_SMD:C_0201_0603Metric" H 6750 3050 50  0001 C CNN
F 3 "~" H 6750 3050 50  0001 C CNN
	1    6750 3050
	1    0    0    -1  
$EndComp
$Comp
L Device:D_Zener D2
U 1 1 60BAE563
P 3750 3850
F 0 "D2" V 3704 3930 50  0000 L CNN
F 1 "12V Zener" V 3795 3930 50  0000 L CNN
F 2 "Diode_SMD:D_0201_0603Metric" H 3750 3850 50  0001 C CNN
F 3 "~" H 3750 3850 50  0001 C CNN
	1    3750 3850
	0    1    1    0   
$EndComp
Wire Wire Line
	2150 2650 2150 2450
Wire Wire Line
	2150 2450 4650 2450
Wire Wire Line
	4650 2450 4650 2650
Wire Wire Line
	4650 3050 4650 3250
Wire Wire Line
	3750 3950 3750 4000
Wire Wire Line
	3750 4250 4650 4250
Connection ~ 3750 4000
Wire Wire Line
	3750 4000 3750 4250
Wire Wire Line
	4650 3250 3750 3250
Connection ~ 4650 3250
Wire Wire Line
	4650 3250 4650 3650
Wire Wire Line
	3750 3750 3750 3700
Connection ~ 3750 3250
Wire Wire Line
	3750 3250 3450 3250
Connection ~ 3750 3700
Wire Wire Line
	3750 3700 3750 3250
Wire Wire Line
	2150 2450 1550 2450
Connection ~ 2150 2450
Wire Wire Line
	2150 2850 2150 3250
Wire Wire Line
	2150 3250 3050 3250
Connection ~ 4650 2450
$Comp
L Regulator_Linear:LM78L05_SO8 U2
U 1 1 60BB9563
P 6050 2450
F 0 "U2" H 6050 2692 50  0000 C CNN
F 1 "LM78L05_SO8" H 6050 2601 50  0000 C CNN
F 2 "Package_SO:SOIC-8_3.9x4.9mm_P1.27mm" H 6150 2650 50  0001 C CIN
F 3 "https://www.onsemi.com/pub/Collateral/MC78L06A-D.pdf" H 6250 2450 50  0001 C CNN
	1    6050 2450
	1    0    0    -1  
$EndComp
Wire Wire Line
	4650 4250 6050 4250
Wire Wire Line
	6050 4250 6050 3350
Connection ~ 4650 4250
Wire Wire Line
	6750 3250 6750 3300
Wire Wire Line
	6750 3350 6050 3350
Connection ~ 6750 3300
Wire Wire Line
	6750 3300 6750 3350
Connection ~ 6050 3350
Wire Wire Line
	6050 3350 6050 2750
Wire Wire Line
	5450 3250 5450 3300
Wire Wire Line
	5450 3350 6050 3350
Connection ~ 5450 3300
Wire Wire Line
	5450 3300 5450 3350
Wire Wire Line
	4650 2450 5450 2450
Wire Wire Line
	6350 2450 6750 2450
Wire Wire Line
	6750 2850 6750 2800
Wire Wire Line
	6750 1750 6250 1750
Connection ~ 6750 2800
Connection ~ 5450 2450
Wire Wire Line
	5450 2450 5750 2450
Wire Wire Line
	5450 1750 5450 2450
Wire Wire Line
	5450 1750 5850 1750
Wire Wire Line
	6750 1750 6750 2450
Connection ~ 6750 2450
Wire Wire Line
	6750 2450 7850 2450
Wire Wire Line
	6750 2450 6750 2800
Wire Wire Line
	1550 4250 3750 4250
Connection ~ 3750 4250
Wire Wire Line
	6050 4250 7750 4250
Connection ~ 6050 4250
Text GLabel 7850 2450 2    50   Input ~ 0
Vreg
Wire Wire Line
	1550 2450 1550 3150
Wire Wire Line
	1550 3450 1550 4250
Text GLabel 1550 3150 0    50   Input ~ 0
Vbattery
$Comp
L power:GND #PWR09
U 1 1 60BBBAD0
P 1250 3450
F 0 "#PWR09" H 1250 3200 50  0001 C CNN
F 1 "GND" H 1255 3277 50  0000 C CNN
F 2 "" H 1250 3450 50  0001 C CNN
F 3 "" H 1250 3450 50  0001 C CNN
	1    1250 3450
	1    0    0    -1  
$EndComp
Wire Wire Line
	1250 3450 1550 3450
Text GLabel 4650 3650 0    50   Input ~ 0
Vbattery
$Comp
L power:GND #PWR011
U 1 1 60BE0442
P 4850 4000
F 0 "#PWR011" H 4850 3750 50  0001 C CNN
F 1 "GND" H 4855 3827 50  0000 C CNN
F 2 "" H 4850 4000 50  0001 C CNN
F 3 "" H 4850 4000 50  0001 C CNN
	1    4850 4000
	1    0    0    -1  
$EndComp
Wire Wire Line
	4850 3950 4650 3950
Wire Wire Line
	4650 3950 4650 4250
Wire Wire Line
	4850 4000 4850 3950
$Comp
L power:PWR_FLAG #FLG0106
U 1 1 60BEC1DE
P 5750 2450
F 0 "#FLG0106" H 5750 2525 50  0001 C CNN
F 1 "PWR_FLAG" H 5750 2623 50  0000 C CNN
F 2 "" H 5750 2450 50  0001 C CNN
F 3 "~" H 5750 2450 50  0001 C CNN
	1    5750 2450
	1    0    0    -1  
$EndComp
Connection ~ 5750 2450
Wire Wire Line
	5450 2450 5450 2800
$EndSCHEMATC
