EESchema Schematic File Version 4
LIBS:Pi HAT UPS-cache
EELAYER 29 0
EELAYER END
$Descr A4 11693 8268
encoding utf-8
Sheet 4 4
Title "OP Amp Sub-system for rpi uHAT UPS"
Date "2021-06-04"
Rev "0.1"
Comp "Group 5"
Comment1 ""
Comment2 ""
Comment3 ""
Comment4 ""
$EndDescr
$Comp
L Device:LED D5
U 1 1 60BD42D8
P 5400 2800
F 0 "D5" V 5439 2682 50  0000 R CNN
F 1 "LED" V 5348 2682 50  0000 R CNN
F 2 "LED_SMD:LED_0201_0603Metric" H 5400 2800 50  0001 C CNN
F 3 "~" H 5400 2800 50  0001 C CNN
	1    5400 2800
	0    1    -1   0   
$EndComp
$Comp
L Device:LED D9
U 1 1 60BD4D3F
P 3400 2800
F 0 "D9" V 3439 2682 50  0000 R CNN
F 1 "LED" V 3348 2682 50  0000 R CNN
F 2 "LED_SMD:LED_0201_0603Metric" H 3400 2800 50  0001 C CNN
F 3 "~" H 3400 2800 50  0001 C CNN
	1    3400 2800
	0    1    -1   0   
$EndComp
$Comp
L Device:LED D7
U 1 1 60BD5588
P 4400 2800
F 0 "D7" V 4439 2682 50  0000 R CNN
F 1 "LED" V 4348 2682 50  0000 R CNN
F 2 "LED_SMD:LED_0201_0603Metric" H 4400 2800 50  0001 C CNN
F 3 "~" H 4400 2800 50  0001 C CNN
	1    4400 2800
	0    1    -1   0   
$EndComp
$Comp
L Device:R_Small R5
U 1 1 60BD5FD5
P 5400 3600
F 0 "R5" H 5459 3646 50  0000 L CNN
F 1 "1k" H 5459 3555 50  0000 L CNN
F 2 "Resistor_SMD:R_0201_0603Metric" H 5400 3600 50  0001 C CNN
F 3 "~" H 5400 3600 50  0001 C CNN
	1    5400 3600
	-1   0    0    -1  
$EndComp
$Comp
L Device:R_Small R6
U 1 1 60BD6511
P 4400 3600
F 0 "R6" H 4459 3646 50  0000 L CNN
F 1 "1k" H 4459 3555 50  0000 L CNN
F 2 "Resistor_SMD:R_0201_0603Metric" H 4400 3600 50  0001 C CNN
F 3 "~" H 4400 3600 50  0001 C CNN
	1    4400 3600
	-1   0    0    -1  
$EndComp
$Comp
L Device:R_Small R7
U 1 1 60BD682D
P 3400 3600
F 0 "R7" H 3459 3646 50  0000 L CNN
F 1 "1k" H 3459 3555 50  0000 L CNN
F 2 "Resistor_SMD:R_0201_0603Metric" H 3400 3600 50  0001 C CNN
F 3 "~" H 3400 3600 50  0001 C CNN
	1    3400 3600
	-1   0    0    -1  
$EndComp
$Comp
L Device:D_Zener D6
U 1 1 60BD7456
P 5400 4400
F 0 "D6" V 5354 4480 50  0000 L CNN
F 1 "D_Zener" V 5445 4480 50  0000 L CNN
F 2 "Diode_SMD:D_0201_0603Metric" H 5400 4400 50  0001 C CNN
F 3 "~" H 5400 4400 50  0001 C CNN
	1    5400 4400
	0    -1   1    0   
$EndComp
$Comp
L Device:D_Zener D8
U 1 1 60BD78B8
P 4400 4400
F 0 "D8" V 4354 4480 50  0000 L CNN
F 1 "D_Zener" V 4445 4480 50  0000 L CNN
F 2 "Diode_SMD:D_0201_0603Metric" H 4400 4400 50  0001 C CNN
F 3 "~" H 4400 4400 50  0001 C CNN
	1    4400 4400
	0    -1   1    0   
$EndComp
$Comp
L Device:D_Zener D10
U 1 1 60BD6E80
P 3400 4400
F 0 "D10" V 3354 4480 50  0000 L CNN
F 1 "D_Zener" V 3445 4480 50  0000 L CNN
F 2 "Diode_SMD:D_0201_0603Metric" H 3400 4400 50  0001 C CNN
F 3 "~" H 3400 4400 50  0001 C CNN
	1    3400 4400
	0    -1   1    0   
$EndComp
Wire Wire Line
	5400 2700 5400 2650
Wire Wire Line
	5400 2600 4400 2600
Connection ~ 5400 2650
Wire Wire Line
	5400 2650 5400 2600
Wire Wire Line
	4400 2700 4400 2650
Connection ~ 4400 2600
Wire Wire Line
	4400 2600 3400 2600
Connection ~ 4400 2650
Wire Wire Line
	4400 2650 4400 2600
Wire Wire Line
	3400 2700 3400 2650
Connection ~ 3400 2650
Wire Wire Line
	3400 2650 3400 2600
Wire Wire Line
	5400 2900 5400 2950
Connection ~ 5400 2950
Wire Wire Line
	5400 2950 5400 3500
Wire Wire Line
	5400 3700 5400 4250
Wire Wire Line
	4400 4300 4400 4250
Connection ~ 5400 4250
Wire Wire Line
	5400 4250 5400 4300
Connection ~ 4400 4250
Wire Wire Line
	4400 4250 4400 3700
Wire Wire Line
	4400 2900 4400 2950
Connection ~ 4400 2950
Wire Wire Line
	4400 2950 4400 3500
Wire Wire Line
	3400 2900 3400 2950
Connection ~ 3400 2950
Wire Wire Line
	3400 2950 3400 3500
Wire Wire Line
	3400 4300 3400 4250
Connection ~ 3400 4250
Wire Wire Line
	3400 4250 3400 3700
Wire Wire Line
	5400 4500 5400 4550
Wire Wire Line
	5400 4800 4900 4800
Wire Wire Line
	4400 4800 4400 4550
Connection ~ 5400 4550
Wire Wire Line
	5400 4550 5400 4800
Connection ~ 4400 4550
Wire Wire Line
	4400 4550 4400 4500
Wire Wire Line
	4400 4800 3400 4800
Wire Wire Line
	3400 4800 3400 4550
Connection ~ 4400 4800
Connection ~ 3400 4550
Wire Wire Line
	3400 4550 3400 4500
Wire Wire Line
	6400 3400 6400 2600
Wire Wire Line
	6400 2600 5400 2600
Connection ~ 5400 2600
Wire Wire Line
	6400 3800 6400 4800
Wire Wire Line
	6400 4800 5400 4800
Connection ~ 5400 4800
$Comp
L power:GND #PWR05
U 1 1 60BE53BF
P 4900 5200
F 0 "#PWR05" H 4900 4950 50  0001 C CNN
F 1 "GND" H 4905 5027 50  0000 C CNN
F 2 "" H 4900 5200 50  0001 C CNN
F 3 "" H 4900 5200 50  0001 C CNN
	1    4900 5200
	-1   0    0    -1  
$EndComp
Wire Wire Line
	4900 5200 4900 4800
Connection ~ 4900 4800
Wire Wire Line
	4900 4800 4400 4800
Text GLabel 6250 3400 0    50   Input ~ 0
Vbattery
Wire Wire Line
	6400 3400 6250 3400
$Comp
L power:GND #PWR010
U 1 1 60BD89AB
P 6400 3800
F 0 "#PWR010" H 6400 3550 50  0001 C CNN
F 1 "GND" H 6405 3627 50  0000 C CNN
F 2 "" H 6400 3800 50  0001 C CNN
F 3 "" H 6400 3800 50  0001 C CNN
	1    6400 3800
	-1   0    0    1   
$EndComp
$EndSCHEMATC
